.................
----------------------------------------------------------------------
Ran 17 tests in 0.019s

OK
Name             Stmts   Miss Branch BrPart  Cover   Missing
------------------------------------------------------------
Collatz.py          23      0     10      0   100%
TestCollatz.py      72      0      2      0   100%
------------------------------------------------------------
TOTAL               95      0     12      0   100%